; PFPX Aircraft Performance File Yakovlev-40
ISA


[GENERAL]
Author=Mikhail Zuev
Version=1.00
AircraftType=Yakovlev Yak-40
EngineType=Ivchenko AI-25
AircraftTypeShort=YK40
ATCDesignator=YK40
NrOfEngines=3
PaxCapacity=32
Equipment=
Transponder=S
PBN=
NAV=
COM=
DAT=
RMK=
RVR=550
WakeTurbulenceCategory=M
PER=
;L..Light, M..Medium, H..Heavy, S..Super

MaximumAltitude=26000

MinLandingRunwayLength=3610

;The Minimum Runway length for automatic alternate determination

Units=KG
;Enter KG for Kilogram or LB for Pounds
EngineAntiIce=
TotalAntiIce=
TakeOffBurn=//
LandingBurn=//
TakeOffTime=//
LandingTime=//

MinWeight=13855
MaxWeight=17265

StandardClimbMode=0
StandardCruiseMode=0
StandardDescentMode=0

AlternateClimbMode=0
AlternateCruiseMode=0
AlternateDescentMode=0

[DEFAULT_DATA_KG]
DOW=10620
MZFW=13855
MTOW=17200
MRW=17265
MLW=17200
FuelCapacity=4400
TaxiFuelPerMinute=13
APUBurnPerHour=50

[CLIMB.0]									
Name=SPEED/ISA								
[DATA]									
ISA;	 14000;			   15000;		 16000;         17200;
1640;	 2;70;1.9;		   2;70;2;	     2;70;2.3;      3.5;75;2.6;
3937;	 3;120;3.7;        3;120;3.8;    4;130;3.9;     5;140;4;
5906;	 4;150;13.5;       5;160;13.6;   5.5;180;13.7;  7;190;13.9;
7874;	 6;190;16.2;       7;210;16.3;   7.5;230;16.4;  9;250;16.7;
9843;	 7.5;240;21.6;     8;260;23;     9;270;25;      11;310;27;
11811;	 9;280;27.5;       10;320;32;    11.5;350;36;   13;380;41;
13780;	 11;340;37.8;      12.5;370;43;  14;400;49;     16;450;54;
15749;   13;390;43.2;      14;430;44;    16;470;45;     20;525;46;
17717;   15;440;51.3;      17;480;64;    19;550;78;     24;650;92;
19686;   18;480;64.8;      20;550;79;    23;640;93;     28;750;108;
21655;   20;550;75.6;      23;630;94;    27;720;112;    32;900;130;
23623;   23;600;91.8;      26;680;111;   31;800;131;    36;980;151;
25592;   26;660;97.2;      30;750;137;   36;880;150;    42;1110;173;
26576;   27;700;108;       32.5;800;130; 38;950;155;    46;1180;184;
				
[/DATA] 								
[/CLIMB.0]									

[CRUISE.0]								
Name=MAX TIME							
MinCruiseAlt=
[DATA]								
WGT;		 13500;		 14000;		 14500;		 15000;		 15500;		 16000;		 17200;		
OPT;		 0;		     0;		     0;		     0;		     0;		     0;		     0;		    	
MAX;		 26000;		 26000;		 26000;		 26000;		 26000;		 25000;		 25000;		
9842;        930;200;    945;200;    960;200;    989;200;    1000;200;   1015;200;   1020;200;     
10827;       898;194;    912;194;    931;194;    953;194;    973;194;    989;194;    992;194;      
11811;       889;198;    906;198;    923;198;    945;198;    966;198;    983;198;    986;198;      
12795;       881;200     896;200;    943;200;    934;200;    952;200;    971;200;    975;200;       
13780;       872;204;    884;204;    902;204;    921;204;    937;204;    954;204;    960;204;      
14763;       845;200;    861;200;    975;200;    895;200;    917;200;    933;200;    936;200;       
15748;       837;204;    852;204;    868;204;    884;204;    903;204;    917;204;    920;204;       
16732;       828;206;    843;206;    857;207;    872;207;    888;207;    902;207;    905;207;       
17716;       802;203;    816;203;    830;203;    846;203;    859;203;    877;203;    880;203;       
18700;       790;206;    805;206;    820;206;    840;206;    855;206;    875;206;    878;206;      
19686;       785;210;    804;210;    820;210;    836;210;    850;210;    865;210;    870;210;       
20670;       756;205;    771;205;    785;205;    802;205;    816;205;    833;205;    838;205;     
21654;       750;211;    765;211;    780;211;    800;211;    812;211;    830;211;    835;211;      
22638;       735;212;    751;212;    766;212;    784;212;    802;212;    830;212;    835;212;       
23622;       730;216;    745;216;    762;216;    780;216;    800;216;    830;216;    835;216;       
24606;       725;219;    742;219;    760;219;    779;219;    800;219;    827;219;    832;219;       
25580;       725;224;    742;224;    740;224;    760;224;    780;224;    820;224;    825;224;      
26575 ;      722;227;    735;227;    755;227;    776;227;    793;227;    807;227;    815;227;       

[/DATA] 							
[/CRUISE.0]

[DESCENT.0]
Name=ECON
[DATA]
ISA;	 13500;        
1640;	 0;0;0;       
3281;	 0.8;9;3.2;          
6562;	 2.7;30;9.7;         
9843;    6.4;79;23.8;         
13123;   10.7;137;40;        
16404;   15.1;191;57.2;        
19685;   19.7;245;74.5;         
22966;   24.5;295;91.8;         
26246;   29.2;340;109.6;        
26576;   29.7;345;111.2;         
[/DATA]
[/DESCENT.0]



